…
```r
bar_age_male <- dat %>% 
  filter(!is.na(intent), sex == "M") %>% 
  group_by(intent, sex, age) %>% 
  summarise(n = n())
bar_age_male
```

```
## # A tibble: 373 x 4
## # Groups:   intent, sex [4]
##    intent     sex     age     n
##    <chr>      <chr> <dbl> <int>
##  1 Accidental M         0     4
##  2 Accidental M         1     1
##  3 Accidental M         2    18
##  4 Accidental M         3    25
##  5 Accidental M         4    15
##  6 Accidental M         5     5
##  7 Accidental M         6     2
##  8 Accidental M         7     5
##  9 Accidental M         8     9
## 10 Accidental M         9     7
## # … with 363 more rows
```

```r
bar_age_race <- dat %>% 
  filter(!is.na(intent)) %>% 
  group_by(intent, age, race) %>% 
  summarise(n = n())
bar_age_race
```

```
## # A tibble: 1,271 x 4
## # Groups:   intent, age [379]
##    intent       age race                               n
##    <chr>      <dbl> <chr>                          <int>
##  1 Accidental     0 Black                              5
##  2 Accidental     0 Hispanic                           2
##  3 Accidental     0 Native American/Native Alaskan     1
##  4 Accidental     0 White                              3
##  5 Accidental     1 Black                              2
##  6 Accidental     1 Hispanic                           1
##  7 Accidental     1 White                              1
##  8 Accidental     2 Asian/Pacific Islander             1
##  9 Accidental     2 Black                              8
## 10 Accidental     2 Hispanic                           1
## # … with 1,261 more rows
```
…
