…
```r
dat %>% 
  filter(year < 17850) %>% 
  group_by(country) %>% 
  summarize(count = n(), count_na = sum(is.na(child_mort)))
```

```
## # A tibble: 319 x 3
##    country               count count_na
##    <chr>                 <int>    <int>
##  1 Abkhazia                  1        1
##  2 Afghanistan             211        2
##  3 Akrotiri and Dhekelia     1        1
##  4 Åland Islands             1        1
##  5 Albania                 207       20
##  6 Algeria                 207        2
##  7 American Samoa            1        1
##  8 Andorra                  25        1
##  9 Angola                  215       10
## 10 Anguilla                  1        1
## # … with 309 more rows
```

```r
dat %>% 
  group_by(country, year) %>% 
  summarize(count = n(), count_na = sum(is.na(child_mort)))
```

```
## # A tibble: 36,873 x 4
## # Groups:   country [319]
##    country      year count count_na
##    <chr>       <int> <int>    <int>
##  1 Abkhazia     2015     1        1
##  2 Afghanistan  1800     1        0
##  3 Afghanistan  1801     1        0
##  4 Afghanistan  1802     1        0
##  5 Afghanistan  1803     1        0
##  6 Afghanistan  1804     1        0
##  7 Afghanistan  1805     1        0
##  8 Afghanistan  1806     1        0
##  9 Afghanistan  1807     1        0
## 10 Afghanistan  1808     1        0
## # … with 36,863 more rows
```

```r
dat %>% 
  group_by(year) %>% 
  summarize(count = n(), count_na = sum(is.na(child_mort)))
```

```
## # A tibble: 255 x 3
##     year count count_na
##    <int> <int>    <int>
##  1  1761     1        0
##  2  1762     1        0
##  3  1763     1        0
##  4  1764     1        0
##  5  1765     1        0
##  6  1766     1        0
##  7  1767     1        0
##  8  1768     1        0
##  9  1769     1        0
## 10  1770     1        0
## # … with 245 more rows
```
…
